Loading_cleaned_data
…
knn_show_best <- k_res %>%
  show_best()

k_res %>%
  select_best()

# A tibble: 1 × 2
  neighbors .config              
      <int> <chr>                
1         3 Preprocessor1_Model02

k_res %>%
  collect_predictions()

# A tibble: 21,504 × 6
      .pred id      .row neighbors difference_in_discharges .config             
      <dbl> <chr>  <int>     <int>                    <dbl> <chr>               
 1  0.106   Fold01     4         1                   0.0995 Preprocessor1_Model…
 2  0.00632 Fold01    11         1                   0.558  Preprocessor1_Model…
 3  0.826   Fold01    16         1                   0.415  Preprocessor1_Model…
 4  0.0860  Fold01    25         1                   0.699  Preprocessor1_Model…
 5  0.0538  Fold01    30         1                   0.0326 Preprocessor1_Model…
 6 -0.0829  Fold01    32         1                  -1.66   Preprocessor1_Model…
 7  0.106   Fold01    34         1                  -1.11   Preprocessor1_Model…
 8  0.198   Fold01    43         1                   0.896  Preprocessor1_Model…
 9  2.47    Fold01    50         1                   2.11   Preprocessor1_Model…
10  0.0699  Fold01    53         1                  -0.288  Preprocessor1_Model…
# ℹ 21,494 more rows
…
Residual standard error: 66.05 on 1397 degrees of freedom
Multiple R-squared:  0.1045,    Adjusted R-squared:  0.08973 
F-statistic: 7.086 on 23 and 1397 DF,  p-value: < 2.2e-16

tidy(test3)

# A tibble: 24 × 5
   term                                     estimate std.error statistic p.value
   <chr>                                       <dbl>     <dbl>     <dbl>   <dbl>
 1 (Intercept)                               5.16e+1 134.        0.384   7.01e-1
 2 removed_omits$`Non-Profit_imputed`       -8.67e-3   6.90     -0.00126 9.99e-1
 3 bed_size_imputed                          8.72e-2   0.0192    4.53    6.28e-6
 4 net_patient_revenue_hundred_thousand_im… -3.05e-3   0.00108  -2.83    4.74e-3
 5 net_charity_care_cost_hundred_thousand_… -2.30e-2   0.0114   -2.02    4.34e-2
 6 medicare_payer_mix_imputed               -3.49e+1  28.0      -1.24    2.14e-1
 7 medicaid_payer_mix_numeric_imputed        1.21e+0  19.3       0.0627  9.50e-1
 8 inpatient_occupancy_imputed              -3.04e+1  12.7      -2.39    1.69e-2
 9 direct_patient_care_labor_hours_numeric… -7.25e+0   8.85     -0.819   4.13e-1
10 percent_children_in_poverty_imputed      -4.56e+1  57.8      -0.788   4.31e-1
# ℹ 14 more rows
…
Total Sum of Squares:    3223200
Residual Sum of Squares: 3015700
R-Squared:      0.064372
Adj. R-Squared: -0.11086
F-statistic: 3.57767 on 23 and 1196 DF, p-value: 2.868e-08

tidy(test4)

# A tibble: 23 × 5
   term                                     estimate std.error statistic p.value
   <chr>                                       <dbl>     <dbl>     <dbl>   <dbl>
 1 removed_omits$`Non-Profit_imputed`        1.31e+1   4.78        2.73  0.00635
 2 bed_size_imputed                         -6.14e-2   0.0421     -1.46  0.145  
 3 net_patient_revenue_hundred_thousand_im… -4.52e-3   0.00142    -3.18  0.00149
 4 net_charity_care_cost_hundred_thousand_… -1.64e-2   0.0110     -1.49  0.136  
 5 medicare_payer_mix_imputed               -6.40e+1  82.5        -0.775 0.438  
 6 medicaid_payer_mix_numeric_imputed        2.48e+1  32.1         0.773 0.440  
 7 inpatient_occupancy_imputed               1.47e+1  21.0         0.700 0.484  
 8 direct_patient_care_labor_hours_numeric…  1.79e+1  11.1         1.61  0.108  
 9 percent_children_in_poverty_imputed       1.77e+1  77.4         0.228 0.819  
10 percent_unemployed_imputed               -5.81e+1 218.         -0.266 0.790  
# ℹ 13 more rows
…
